{"count":327,"next":"https://ll.thespacedevs.com/2.0.0/launch/upcoming/?limit=10&offset=10","previous":null,"results":[{"id":"25780f1d-a1cd-40dc-a645-836ef4a2739f","url":"https://ll.thespacedevs.com/2.0.0/launch/25780f1d-a1cd-40dc-a645-836ef4a2739f/","launch_library_id":null,"slug":"long-march-4c-unknown-payload","name":"Long March 4C | Unknown Payload","status":{"id":1,"name":"Go"},"net":"2025-08-17T09:05:00Z","window_end":"2025-08-17T09:20:00Z","window_start":"2025-08-17T08:56:00Z","inhold":false,"tbdtime":true,"tbddate":false,"probability":null,"holdreason":"","failreason":"","hashtag":null,"launch_service_provider":{"id":88,"url":"https://ll.thespacedevs.com/2.0.0/agencies/88/","name":"China Aerospace Science and Technology Corporation","type":"Government"},"rocket":{"id":8682,"configuration":{"id":64,"launch_library_id":70,"url":"https://ll.thespacedevs.com/2.0.0/config/launcher/64/","name":"Long March 4C","family":"Long March","full_name":"Long March 4C","variant":"C"}},"mission":{"id":7274,"launch_library_id":null,"name":"Unknown Payload","description":"Details TBD.","launch_designator":null,"type":"Unknown","orbit":{"id":25,"name":"Unknown","abbrev":"N/A"}},"pad":{"id":66,"url":"https://ll.thespacedevs.com/2.0.0/pad/66/","agency_id":17,"name":"Launch Complex 3 (LC-3/LA-1)","info_url":null,"wiki_url":"https://en.wikipedia.org/wiki/Xichang_Satellite_Launch_Center","map_url":"https://www.google.com/maps?q=28.247209,102.02917","latitude":"28.247209","longitude":"102.02917","location":{"id":16,"url":"https://ll.thespacedevs.com/2.0.0/location/16/","name":"Xichang Satellite Launch Center, People's Republic of China","country_code":"CHN","map_image":"https://thespacedevs-prod.nyc3.digitaloceanspaces.com/media/map_images/location_16_20200803142513.jpg","total_launch_count":229,"total_landing_count":0},"map_image":"https://thespacedevs-prod.nyc3.digitaloceanspaces.com/media/map_images/pad_66_20200803143611.jpg","total_launch_count":101},"webcast_live":false,"image":"https://thespacedevs-prod.nyc3.digitaloceanspaces.com/media/images/long_march_4c_image_20230801172338.jpeg","infographic":null,"program":[]},{"id":"2983a714-53e2-4b4a-8757-ade478d63232","url":"https://ll.thespacedevs.com/2.0.0/launch/2983a714-53e2-4b4a-8757-ade478d63232/","launch_library_id":null,"slug":"long-march-6a-unknown-payload","name":"Long March 6A | Unknown Payload","status":{"id":1,"name":"Go"},"net":"2025-08-17T14:15:00Z","window_end":"2025-08-17T14:23:00Z","window_start":"2025-08-17T14:07:00Z","inhold":false,"tbdtime":true,"tbddate":false,"probability":null,"holdreason":"","failreason":"","hashtag":null,"launch_service_provider":{"id":88,"url":"https://ll.thespacedevs.com/2.0.0/agencies/88/","name":"China Aerospace Science and Technology Corporation","type":"Government"},"rocket":{"id":8681,"configuration":{"id":478,"launch_library_id":null,"url":"https://ll.thespacedevs.com/2.0.0/config/launcher/478/","name":"Long March 6A","family":"Long March","full_name":"Long March 6A","variant":""}},"mission":{"id":7273,"launch_library_id":null,"name":"Unknown Payload","description":"Details TBD.","launch_designator":null,"type":"Unknown","orbit":{"id":25,"name":"Unknown","abbrev":"N/A"}},"pad":{"id":200,"url":"https://ll.thespacedevs.com/2.0.0/pad/200/","agency_id":null,"name":"Launch Complex 9A","info_url":null,"wiki_url":null,"map_url":"https://www.google.com/maps?q=38.8583,111.5802","latitude":"38.8583","longitude":"111.5802","location":{"id":19,"url":"https://ll.thespacedevs.com/2.0.0/location/19/","name":"Taiyuan Satellite Launch Center, People's Republic of China","country_code":"CHN","map_image":"https://thespacedevs-prod.nyc3.digitaloceanspaces.com/media/map_images/location_19_20200803142421.jpg","total_launch_count":143,"total_landing_count":0},"map_image":"https://thespacedevs-prod.nyc3.digitaloceanspaces.com/media/map_images/pad_launch_complex_9a_20220330003717.jpg","total_launch_count":15},"webcast_live":false,"image":"https://thespacedevs-prod.nyc3.digitaloceanspaces.com/media/images/long_march_6a_image_20221109174525.png","infographic":null,"program":[]},{"id":"d66bb4a0-cb32-45d8-81ba-d86e43dd3eb2","url":"https://ll.thespacedevs.com/2.0.0/launch/d66bb4a0-cb32-45d8-81ba-d86e43dd3eb2/","launch_library_id":null,"slug":"falcon-9-block-5-starlink-group-17-5","name":"Falcon 9 Block 5 | Starlink Group 17-5","status":{"id":1,"name":"Go"},"net":"2025-08-18T15:44:00Z","window_end":"2025-08-18T19:44:00Z","window_start":"2025-08-18T15:44:00Z","inhold":false,"tbdtime":false,"tbddate":false,"probability":null,"holdreason":"","failreason":"","hashtag":null,"launch_service_provider":{"id":121,"url":"https://ll.thespacedevs.com/2.0.0/agencies/121/","name":"SpaceX","type":"Commercial"},"rocket":{"id":8674,"configuration":{"id":164,"launch_library_id":188,"url":"https://ll.thespacedevs.com/2.0.0/config/launcher/164/","name":"Falcon 9","family":"Falcon","full_name":"Falcon 9 Block 5","variant":"Block 5"}},"mission":{"id":7266,"launch_library_id":null,"name":"Starlink Group 17-5","description":"A batch of 24 satellites for the Starlink mega-constellation - SpaceX's project for space-based Internet communication system.","launch_designator":null,"type":"Communications","orbit":{"id":8,"name":"Low Earth Orbit","abbrev":"LEO"}},"pad":{"id":16,"url":"https://ll.thespacedevs.com/2.0.0/pad/16/","agency_id":null,"name":"Space Launch Complex 4E","info_url":null,"wiki_url":"https://en.wikipedia.org/wiki/Vandenberg_Space_Launch_Complex_4#SLC-4E","map_url":"https://www.google.com/maps?q=34.632,-120.611","latitude":"34.632","longitude":"-120.611","location":{"id":11,"url":"https://ll.thespacedevs.com/2.0.0/location/11/","name":"Vandenberg SFB, CA, USA","country_code":"USA","map_image":"https://thespacedevs-prod.nyc3.digitaloceanspaces.com/media/map_images/location_11_20200803142416.jpg","total_launch_count":822,"total_landing_count":27},"map_image":"https://thespacedevs-prod.nyc3.digitaloceanspaces.com/media/map_images/pad_16_20200803143532.jpg","total_launch_count":208},"webcast_live":false,"image":"https://thespacedevs-prod.nyc3.digitaloceanspaces.com/media/images/falcon2520925_image_20221009234147.png","infographic":null,"program":[{"id":25,"url":"https://ll.thespacedevs.com/2.0.0/program/25/","name":"Starlink","description":"Starlink is a satellite internet constellation operated by American aerospace company SpaceX","agencies":[{"id":121,"url":"https://ll.thespacedevs.com/2.0.0/agencies/121/","name":"SpaceX","type":"Commercial"}],"image_url":"https://thespacedevs-prod.nyc3.digitaloceanspaces.com/media/images/starlink_program_20231228154508.jpeg","start_date":"2018-02-22T14:17:00Z","end_date":null,"info_url":"https://starlink.com","wiki_url":"https://en.wikipedia.org/wiki/Starlink"}]},{"id":"49678ae6-8664-4d60-9aa2-622c087ed917","url":"https://ll.thespacedevs.com/2.0.0/launch/49678ae6-8664-4d60-9aa2-622c087ed917/","launch_library_id":null,"slug":"soyuz-21a-bion-m-no-2","name":"Soyuz 2.1a | Bion-M No. 2","status":{"id":1,"name":"Go"},"net":"2025-08-20T17:13:00Z","window_end":"2025-08-20T17:13:00Z","window_start":"2025-08-20T17:13:00Z","inhold":false,"tbdtime":false,"tbddate":false,"probability":null,"holdreason":"","failreason":"","hashtag":null,"launch_service_provider":{"id":63,"url":"https://ll.thespacedevs.com/2.0.0/agencies/63/","name":"Russian Federal Space Agency (ROSCOSMOS)","type":"Government"},"rocket":{"id":8083,"configuration":{"id":24,"launch_library_id":49,"url":"https://ll.thespacedevs.com/2.0.0/config/launcher/24/","name":"Soyuz 2.1a","family":"Soyuz","full_name":"Soyuz 2.1a","variant":""}},"mission":{"id":6637,"launch_library_id":null,"name":"Bion-M No. 2","description":"Bion-M is the next generation of Russian biological research satellites. While retaining the Vostok/Zenit-derived reentry module of the earlier Bion, the propulsion module has been replace by a Yantar type module, which provides maneuvering capabilities and longer mission support. The mission duration has been increased to up to 6 months by using solar cells for energy generation. The weight of scientific equipment has been increased by 100 kilograms.","launch_designator":null,"type":"Biology","orbit":{"id":8,"name":"Low Earth Orbit","abbrev":"LEO"}},"pad":{"id":20,"url":"https://ll.thespacedevs.com/2.0.0/pad/20/","agency_id":null,"name":"31/6","info_url":null,"wiki_url":"https://en.wikipedia.org/wiki/Baikonur_Cosmodrome_Site_31","map_url":"https://www.google.com/maps?q=45.996034,63.564003","latitude":"45.996034","longitude":"63.564003","location":{"id":15,"url":"https://ll.thespacedevs.com/2.0.0/location/15/","name":"Baikonur Cosmodrome, Republic of Kazakhstan","country_code":"KAZ","map_image":"https://thespacedevs-prod.nyc3.digitaloceanspaces.com/media/map_images/location_15_20200803142517.jpg","total_launch_count":1556,"total_landing_count":0},"map_image":"https://thespacedevs-prod.nyc3.digitaloceanspaces.com/media/map_images/pad_20_20200803143516.jpg","total_launch_count":423},"webcast_live":false,"image":"https://thespacedevs-prod.nyc3.digitaloceanspaces.com/media/images/soyuz_2.1a_image_20230805184309.jpg","infographic":null,"program":[]},{"id":"2d5f2335-c3c2-4306-9dde-8ec37f348ccf","url":"https://ll.thespacedevs.com/2.0.0/launch/2d5f2335-c3c2-4306-9dde-8ec37f348ccf/","launch_library_id":null,"slug":"falcon-9-block-5-otv-8-x-37b-ussf-36","name":"Falcon 9 Block 5 | OTV-8 (X-37B) (USSF-36)","status":{"id":2,"name":"TBD"},"net":"2025-08-21T00:00:00Z","window_end":"2025-08-21T00:00:00Z","window_start":"2025-08-21T00:00:00Z","inhold":false,"tbdtime":true,"tbddate":false,"probability":null,"holdreason":"","failreason":"","hashtag":null,"launch_service_provider":{"id":121,"url":"https://ll.thespacedevs.com/2.0.0/agencies/121/","name":"SpaceX","type":"Commercial"},"rocket":{"id":7857,"configuration":{"id":164,"launch_library_id":188,"url":"https://ll.thespacedevs.com/2.0.0/config/launcher/164/","name":"Falcon 9","family":"Falcon","full_name":"Falcon 9 Block 5","variant":"Block 5"}},"mission":{"id":6365,"launch_library_id":null,"name":"OTV-8 (X-37B) (USSF-36)","description":"Eighth flight of the X-37B program. \r\n\r\nThe X-37B is a dynamic and responsive spacecraft responsible for conducting a range of tests and experiments that expedite the development of critical next-generation technologies and operational concepts for reusable space capabilities.\r\n\r\nThe OTV-8 mission in Low Earth Orbit includes operational demonstrations and experiments of next-generation technologies, including laser communications and the highest performing strategic grade quantum inertial sensor ever tested in space. Mission partners include the Air Force Research Lab and the Defense Innovation Unit, respectively.","launch_designator":null,"type":"Government/Top Secret","orbit":{"id":8,"name":"Low Earth Orbit","abbrev":"LEO"}},"pad":{"id":87,"url":"https://ll.thespacedevs.com/2.0.0/pad/87/","agency_id":121,"name":"Launch Complex 39A","info_url":null,"wiki_url":"https://en.wikipedia.org/wiki/Kennedy_Space_Center_Launch_Complex_39#Launch_Pad_39A","map_url":"https://www.google.com/maps?q=28.60822681,-80.60428186","latitude":"28.60822681","longitude":"-80.60428186","location":{"id":27,"url":"https://ll.thespacedevs.com/2.0.0/location/27/","name":"Kennedy Space Center, FL, USA","country_code":"USA","map_image":"https://thespacedevs-prod.nyc3.digitaloceanspaces.com/media/map_images/location_27_20200803142447.jpg","total_launch_count":269,"total_landing_count":0},"map_image":"https://thespacedevs-prod.nyc3.digitaloceanspaces.com/media/map_images/pad_87_20200803143537.jpg","total_launch_count":211},"webcast_live":false,"image":"https://thespacedevs-prod.nyc3.digitaloceanspaces.com/media/images/falcon_9_image_20230807133459.jpeg","infographic":null,"program":[]},{"id":"709a1d9f-a0aa-4fd0-b108-1015393f49e1","url":"https://ll.thespacedevs.com/2.0.0/launch/709a1d9f-a0aa-4fd0-b108-1015393f49e1/","launch_library_id":null,"slug":"angara-12-kosmos-unknown-payload","name":"Angara 1.2 | Kosmos (Unknown Payload)","status":{"id":1,"name":"Go"},"net":"2025-08-21T08:30:00Z","window_end":"2025-08-21T10:30:00Z","window_start":"2025-08-21T08:30:00Z","inhold":false,"tbdtime":true,"tbddate":false,"probability":null,"holdreason":"","failreason":"","hashtag":null,"launch_service_provider":{"id":193,"url":"https://ll.thespacedevs.com/2.0.0/agencies/193/","name":"Russian Space Forces","type":"Government"},"rocket":{"id":8683,"configuration":{"id":136,"launch_library_id":145,"url":"https://ll.thespacedevs.com/2.0.0/config/launcher/136/","name":"Angara 1.2","family":"Angara","full_name":"Angara 1.2","variant":"1.2"}},"mission":{"id":7275,"launch_library_id":null,"name":"Kosmos (Unknown Payload)","description":"Unknown classified payload for the Russian military.","launch_designator":null,"type":"Government/Top Secret","orbit":{"id":13,"name":"Polar Orbit","abbrev":"PO"}},"pad":{"id":42,"url":"https://ll.thespacedevs.com/2.0.0/pad/42/","agency_id":163,"name":"35/1","info_url":null,"wiki_url":"https://en.wikipedia.org/wiki/Plesetsk_Cosmodrome_Site_35","map_url":"https://www.google.com/maps?q=62.927319,40.574897","latitude":"62.927319","longitude":"40.574897","location":{"id":6,"url":"https://ll.thespacedevs.com/2.0.0/location/6/","name":"Plesetsk Cosmodrome, Russian Federation","country_code":"RUS","map_image":"https://thespacedevs-prod.nyc3.digitaloceanspaces.com/media/map_images/location_6_20200803142434.jpg","total_launch_count":1676,"total_landing_count":0},"map_image":"https://thespacedevs-prod.nyc3.digitaloceanspaces.com/media/map_images/pad_42_20200803143543.jpg","total_launch_count":9},"webcast_live":false,"image":"https://thespacedevs-prod.nyc3.digitaloceanspaces.com/media/images/angara25201.2_image_20190224012254.jpeg","infographic":null,"program":[]},{"id":"80af8d63-64aa-4d16-9abd-bdbe167cecb9","url":"https://ll.thespacedevs.com/2.0.0/launch/80af8d63-64aa-4d16-9abd-bdbe167cecb9/","launch_library_id":null,"slug":"falcon-9-block-5-starlink-group-17-6","name":"Falcon 9 Block 5 | Starlink Group 17-6","status":{"id":1,"name":"Go"},"net":"2025-08-22T15:44:00Z","window_end":"2025-08-22T19:44:00Z","window_start":"2025-08-22T15:44:00Z","inhold":false,"tbdtime":false,"tbddate":false,"probability":null,"holdreason":"","failreason":"","hashtag":null,"launch_service_provider":{"id":121,"url":"https://ll.thespacedevs.com/2.0.0/agencies/121/","name":"SpaceX","type":"Commercial"},"rocket":{"id":8675,"configuration":{"id":164,"launch_library_id":188,"url":"https://ll.thespacedevs.com/2.0.0/config/launcher/164/","name":"Falcon 9","family":"Falcon","full_name":"Falcon 9 Block 5","variant":"Block 5"}},"mission":{"id":7267,"launch_library_id":null,"name":"Starlink Group 17-6","description":"A batch of 24 satellites for the Starlink mega-constellation - SpaceX's project for space-based Internet communication system.","launch_designator":null,"type":"Communications","orbit":{"id":8,"name":"Low Earth Orbit","abbrev":"LEO"}},"pad":{"id":16,"url":"https://ll.thespacedevs.com/2.0.0/pad/16/","agency_id":null,"name":"Space Launch Complex 4E","info_url":null,"wiki_url":"https://en.wikipedia.org/wiki/Vandenberg_Space_Launch_Complex_4#SLC-4E","map_url":"https://www.google.com/maps?q=34.632,-120.611","latitude":"34.632","longitude":"-120.611","location":{"id":11,"url":"https://ll.thespacedevs.com/2.0.0/location/11/","name":"Vandenberg SFB, CA, USA","country_code":"USA","map_image":"https://thespacedevs-prod.nyc3.digitaloceanspaces.com/media/map_images/location_11_20200803142416.jpg","total_launch_count":822,"total_landing_count":27},"map_image":"https://thespacedevs-prod.nyc3.digitaloceanspaces.com/media/map_images/pad_16_20200803143532.jpg","total_launch_count":208},"webcast_live":false,"image":"https://thespacedevs-prod.nyc3.digitaloceanspaces.com/media/images/falcon2520925_image_20221009234147.png","infographic":null,"program":[{"id":25,"url":"https://ll.thespacedevs.com/2.0.0/program/25/","name":"Starlink","description":"Starlink is a satellite internet constellation operated by American aerospace company SpaceX","agencies":[{"id":121,"url":"https://ll.thespacedevs.com/2.0.0/agencies/121/","name":"SpaceX","type":"Commercial"}],"image_url":"https://thespacedevs-prod.nyc3.digitaloceanspaces.com/media/images/starlink_program_20231228154508.jpeg","start_date":"2018-02-22T14:17:00Z","end_date":null,"info_url":"https://starlink.com","wiki_url":"https://en.wikipedia.org/wiki/Starlink"}]},{"id":"e8e93778-657c-401c-9c88-3cd4c7c45c9d","url":"https://ll.thespacedevs.com/2.0.0/launch/e8e93778-657c-401c-9c88-3cd4c7c45c9d/","launch_library_id":null,"slug":"falcon-9-block-5-dragon-crs-2-spx-33","name":"Falcon 9 Block 5 | Dragon CRS-2 SpX-33","status":{"id":1,"name":"Go"},"net":"2025-08-24T06:45:00Z","window_end":"2025-08-24T06:45:00Z","window_start":"2025-08-24T06:45:00Z","inhold":false,"tbdtime":false,"tbddate":false,"probability":null,"holdreason":"","failreason":"","hashtag":null,"launch_service_provider":{"id":121,"url":"https://ll.thespacedevs.com/2.0.0/agencies/121/","name":"SpaceX","type":"Commercial"},"rocket":{"id":7746,"configuration":{"id":164,"launch_library_id":188,"url":"https://ll.thespacedevs.com/2.0.0/config/launcher/164/","name":"Falcon 9","family":"Falcon","full_name":"Falcon 9 Block 5","variant":"Block 5"}},"mission":{"id":6264,"launch_library_id":null,"name":"Dragon CRS-2 SpX-33","description":"33rd commercial resupply services mission to the International Space Station operated by SpaceX. The flight will be conducted under the second Commercial Resupply Services contract with NASA.\r\n\r\nCargo Dragon 2 brings supplies and payloads, including critical materials to directly support science and research investigations that occur onboard the orbiting laboratory.","launch_designator":null,"type":"Resupply","orbit":{"id":8,"name":"Low Earth Orbit","abbrev":"LEO"}},"pad":{"id":80,"url":"https://ll.thespacedevs.com/2.0.0/pad/80/","agency_id":121,"name":"Space Launch Complex 40","info_url":null,"wiki_url":"https://en.wikipedia.org/wiki/Cape_Canaveral_Air_Force_Station_Space_Launch_Complex_40","map_url":"https://www.google.com/maps?q=28.56194122,-80.57735736","latitude":"28.56194122","longitude":"-80.57735736","location":{"id":12,"url":"https://ll.thespacedevs.com/2.0.0/location/12/","name":"Cape Canaveral SFS, FL, USA","country_code":"USA","map_image":"https://thespacedevs-prod.nyc3.digitaloceanspaces.com/media/map_images/location_12_20200803142519.jpg","total_launch_count":1046,"total_landing_count":66},"map_image":"https://thespacedevs-prod.nyc3.digitaloceanspaces.com/media/map_images/pad_80_20200803143323.jpg","total_launch_count":328},"webcast_live":false,"image":"https://thespacedevs-prod.nyc3.digitaloceanspaces.com/media/images/falcon2520925_image_20210520085648.jpeg","infographic":null,"program":[{"id":11,"url":"https://ll.thespacedevs.com/2.0.0/program/11/","name":"Commercial Resupply Services","description":"Commercial Resupply Services (CRS) are a series of flights awarded by NASA for the delivery of cargo and supplies to the International Space Station.The first CRS contracts were signed in 2008 and awarded $1.6 billion to SpaceX for twelve cargo Dragon and $1.9 billion to Orbital Sciences for eight Cygnus flights, covering deliveries to 2016. The Falcon 9 and Antares rockets were also developed under the CRS program to deliver cargo spacecraft to the ISS.","agencies":[{"id":44,"url":"https://ll.thespacedevs.com/2.0.0/agencies/44/","name":"National Aeronautics and Space Administration","type":"Government"},{"id":257,"url":"https://ll.thespacedevs.com/2.0.0/agencies/257/","name":"Northrop Grumman Space Systems","type":"Commercial"},{"id":1020,"url":"https://ll.thespacedevs.com/2.0.0/agencies/1020/","name":"Sierra Nevada Corporation","type":"Commercial"},{"id":121,"url":"https://ll.thespacedevs.com/2.0.0/agencies/121/","name":"SpaceX","type":"Commercial"}],"image_url":"https://thespacedevs-prod.nyc3.digitaloceanspaces.com/media/images/commercial2520_program_20201129212219.png","start_date":"2008-12-23T00:00:00Z","end_date":null,"info_url":null,"wiki_url":"https://en.wikipedia.org/wiki/Commercial_Resupply_Services#Commercial_Resupply_Services"},{"id":17,"url":"https://ll.thespacedevs.com/2.0.0/program/17/","name":"International Space Station","description":"The International Space Station programme is tied together by a complex set of legal, political and financial agreements between the sixteen nations involved in the project, governing ownership of the various components, rights to crewing and utilization, and responsibilities for crew rotation and resupply of the International Space Station. It was conceived in 1984 by President Ronald Reagan, during the Space Station Freedom project as it was originally called.","agencies":[{"id":16,"url":"https://ll.thespacedevs.com/2.0.0/agencies/16/","name":"Canadian Space Agency","type":"Government"},{"id":27,"url":"https://ll.thespacedevs.com/2.0.0/agencies/27/","name":"European Space Agency","type":"Multinational"},{"id":37,"url":"https://ll.thespacedevs.com/2.0.0/agencies/37/","name":"Japan Aerospace Exploration Agency","type":"Government"},{"id":44,"url":"https://ll.thespacedevs.com/2.0.0/agencies/44/","name":"National Aeronautics and Space Administration","type":"Government"},{"id":63,"url":"https://ll.thespacedevs.com/2.0.0/agencies/63/","name":"Russian Federal Space Agency (ROSCOSMOS)","type":"Government"}],"image_url":"https://thespacedevs-prod.nyc3.digitaloceanspaces.com/media/images/international2_program_20201129184745.png","start_date":"1998-11-20T06:40:00Z","end_date":null,"info_url":"https://www.nasa.gov/mission_pages/station/main/index.html","wiki_url":"https://en.wikipedia.org/wiki/International_Space_Station_programme"}]},{"id":"fc1dafd8-bcb0-4e77-8ba9-2d03134f04e4","url":"https://ll.thespacedevs.com/2.0.0/launch/fc1dafd8-bcb0-4e77-8ba9-2d03134f04e4/","launch_library_id":null,"slug":"starship-flight-10","name":"Starship | Flight 10","status":{"id":1,"name":"Go"},"net":"2025-08-24T23:30:00Z","window_end":"2025-08-25T00:30:00Z","window_start":"2025-08-24T23:30:00Z","inhold":false,"tbdtime":false,"tbddate":false,"probability":null,"holdreason":"","failreason":"","hashtag":null,"launch_service_provider":{"id":121,"url":"https://ll.thespacedevs.com/2.0.0/agencies/121/","name":"SpaceX","type":"Commercial"},"rocket":{"id":8644,"configuration":{"id":464,"launch_library_id":null,"url":"https://ll.thespacedevs.com/2.0.0/config/launcher/464/","name":"Starship","family":"Starship","full_name":"Starship","variant":""}},"mission":{"id":7236,"launch_library_id":null,"name":"Flight 10","description":"10th test flight of the two-stage Starship launch vehicle.","launch_designator":null,"type":"Test Flight","orbit":{"id":15,"name":"Suborbital","abbrev":"Sub"}},"pad":{"id":188,"url":"https://ll.thespacedevs.com/2.0.0/pad/188/","agency_id":121,"name":"Orbital Launch Mount A","info_url":null,"wiki_url":"https://en.wikipedia.org/wiki/SpaceX_Starbase#Launch_site_(Orbital_Launch_Pad_A_and_B)","map_url":"https://www.google.com/maps?q=25.9962,-97.154423","latitude":"25.9962","longitude":"-97.154423","location":{"id":143,"url":"https://ll.thespacedevs.com/2.0.0/location/143/","name":"SpaceX Starbase, TX, USA","country_code":"USA","map_image":"https://thespacedevs-prod.nyc3.digitaloceanspaces.com/media/map_images/location_143_20200803142438.jpg","total_launch_count":18,"total_landing_count":13},"map_image":"https://thespacedevs-prod.nyc3.digitaloceanspaces.com/media/map_images/pad_orbital_launch_mount_a_20210514061342.jpg","total_launch_count":9},"webcast_live":false,"image":"https://thespacedevs-prod.nyc3.digitaloceanspaces.com/media/images/starship_on_the_image_20250111100520.jpg","infographic":null,"program":[{"id":1,"url":"https://ll.thespacedevs.com/2.0.0/program/1/","name":"SpaceX Starship","description":"The SpaceX Starship is a fully reusable super heavy-lift launch vehicle under development by SpaceX since 2012, as a self-funded private spaceflight project.  The second stage of the Starship — is designed as a long-duration cargo and passenger-carrying spacecraft. It is expected to be initially used without any booster stage at all, as part of an extensive development program to prove out launch-and-landing and iterate on a variety of design details, particularly with respect to the vehicle's atmospheric reentry.","agencies":[{"id":121,"url":"https://ll.thespacedevs.com/2.0.0/agencies/121/","name":"SpaceX","type":"Commercial"}],"image_url":"https://thespacedevs-prod.nyc3.digitaloceanspaces.com/media/images/spacex2520star_program_20201129204513.png","start_date":"2019-03-01T05:00:00Z","end_date":null,"info_url":"https://www.spacex.com/vehicles/starship/","wiki_url":"https://en.wikipedia.org/wiki/SpaceX_Starship"}]},{"id":"a2f73993-79f6-4228-bebc-0ada6840e503","url":"https://ll.thespacedevs.com/2.0.0/launch/a2f73993-79f6-4228-bebc-0ada6840e503/","launch_library_id":null,"slug":"falcon-9-block-5-starlink-group-10-11","name":"Falcon 9 Block 5 | Starlink Group 10-11","status":{"id":2,"name":"TBD"},"net":"2025-08-27T00:00:00Z","window_end":"2025-08-27T00:00:00Z","window_start":"2025-08-27T00:00:00Z","inhold":false,"tbdtime":true,"tbddate":false,"probability":null,"holdreason":"","failreason":"","hashtag":null,"launch_service_provider":{"id":121,"url":"https://ll.thespacedevs.com/2.0.0/agencies/121/","name":"SpaceX","type":"Commercial"},"rocket":{"id":8673,"configuration":{"id":164,"launch_library_id":188,"url":"https://ll.thespacedevs.com/2.0.0/config/launcher/164/","name":"Falcon 9","family":"Falcon","full_name":"Falcon 9 Block 5","variant":"Block 5"}},"mission":{"id":7265,"launch_library_id":null,"name":"Starlink Group 10-11","description":"A batch of 28 satellites for the Starlink mega-constellation - SpaceX's project for space-based Internet communication system.","launch_designator":null,"type":"Communications","orbit":{"id":8,"name":"Low Earth Orbit","abbrev":"LEO"}},"pad":{"id":80,"url":"https://ll.thespacedevs.com/2.0.0/pad/80/","agency_id":121,"name":"Space Launch Complex 40","info_url":null,"wiki_url":"https://en.wikipedia.org/wiki/Cape_Canaveral_Air_Force_Station_Space_Launch_Complex_40","map_url":"https://www.google.com/maps?q=28.56194122,-80.57735736","latitude":"28.56194122","longitude":"-80.57735736","location":{"id":12,"url":"https://ll.thespacedevs.com/2.0.0/location/12/","name":"Cape Canaveral SFS, FL, USA","country_code":"USA","map_image":"https://thespacedevs-prod.nyc3.digitaloceanspaces.com/media/map_images/location_12_20200803142519.jpg","total_launch_count":1046,"total_landing_count":66},"map_image":"https://thespacedevs-prod.nyc3.digitaloceanspaces.com/media/map_images/pad_80_20200803143323.jpg","total_launch_count":328},"webcast_live":false,"image":"https://thespacedevs-prod.nyc3.digitaloceanspaces.com/media/images/falcon2520925_image_20221009234147.png","infographic":null,"program":[{"id":25,"url":"https://ll.thespacedevs.com/2.0.0/program/25/","name":"Starlink","description":"Starlink is a satellite internet constellation operated by American aerospace company SpaceX","agencies":[{"id":121,"url":"https://ll.thespacedevs.com/2.0.0/agencies/121/","name":"SpaceX","type":"Commercial"}],"image_url":"https://thespacedevs-prod.nyc3.digitaloceanspaces.com/media/images/starlink_program_20231228154508.jpeg","start_date":"2018-02-22T14:17:00Z","end_date":null,"info_url":"https://starlink.com","wiki_url":"https://en.wikipedia.org/wiki/Starlink"}]}]}